Project 1
…
I pivoted murder_2015_final longer to in order to tidy the data set and give year it’s own column, making it a seperate variable. I pivoted the bad_drivers data set wider to make it untidy. In the untidy data set each state has its own column and therefore many rows are filled with NAs.

Joining

d_b <- left_join(drivers, murder, by="state")
d_b <- d_b%>%na.omit()

Both data sets contained “states” as the common variable. I chose to perform a left join so the murder data set would be added to the bad drivers data set. This was simple join and allowed me to see the driving and murder statistics for each state very clearly. I omitted all the NA values so the data would be easier to work with.

Wrangling

d_b %>% filter(state == "California" & losses>=150)

## # A tibble: 30 x 11
##    state num_drivers perc_speeding perc_alcohol perc_not_distra…
##    <chr>       <dbl>         <int>        <int>            <int>
##  1 Cali…          12            35           28               91
##  2 Cali…          12            35           28               91
##  3 Cali…          12            35           28               91
##  4 Cali…          12            35           28               91
##  5 Cali…          12            35           28               91
##  6 Cali…          12            35           28               91
##  7 Cali…          12            35           28               91
##  8 Cali…          12            35           28               91
##  9 Cali…          12            35           28               91
## 10 Cali…          12            35           28               91
## # … with 20 more rows, and 6 more variables: perc_no_previous <int>,
## #   insurance_premiums <dbl>, losses <dbl>, city <chr>, year <chr>,
## #   murder <int>

d_b %>% arrange(insurance_premiums)

## # A tibble: 164 x 11
##    state num_drivers perc_speeding perc_alcohol perc_not_distra…
##    <chr>       <dbl>         <int>        <int>            <int>
##  1 Wisc…        13.8            36           33               39
##  2 Wisc…        13.8            36           33               39
##  3 Ohio         14.1            28           34               99
##  4 Ohio         14.1            28           34               99
##  5 Ohio         14.1            28           34               99
##  6 Ohio         14.1            28           34               99
##  7 Ohio         14.1            28           34               99
##  8 Ohio         14.1            28           34               99
##  9 Ohio         14.1            28           34               99
## 10 Ohio         14.1            28           34               99
## # … with 154 more rows, and 6 more variables: perc_no_previous <int>,
## #   insurance_premiums <dbl>, losses <dbl>, city <chr>, year <chr>,
## #   murder <int>

d_b %>% arrange(desc(state), desc(murder), desc(insurance_premiums))

## # A tibble: 164 x 11
##    state num_drivers perc_speeding perc_alcohol perc_not_distra…
##    <chr>       <dbl>         <int>        <int>            <int>
##  1 Wisc…        13.8            36           33               39
##  2 Wisc…        13.8            36           33               39
##  3 Wash…        10.6            42           33               82
##  4 Wash…        10.6            42           33               82
##  5 Virg…        12.7            19           27               87
##  6 Virg…        12.7            19           27               87
##  7 Texas        19.4            40           38               91
##  8 Texas        19.4            40           38               91
##  9 Texas        19.4            40           38               91
## 10 Texas        19.4            40           38               91
## # … with 154 more rows, and 6 more variables: perc_no_previous <int>,
## #   insurance_premiums <dbl>, losses <dbl>, city <chr>, year <chr>,
## #   murder <int>

d_b %>% select(city, num_drivers)

## # A tibble: 164 x 2
##    city      num_drivers
##    <chr>           <dbl>
##  1 Mobile           18.8
##  2 Mobile           18.8
##  3 Anchorage        18.1
##  4 Anchorage        18.1
##  5 Mesa             18.6
##  6 Mesa             18.6
##  7 Chandler         18.6
##  8 Chandler         18.6
##  9 Phoenix          18.6
## 10 Phoenix          18.6
## # … with 154 more rows

d_b %>% mutate(meanlosses = mean(losses))

## # A tibble: 164 x 12
##    state num_drivers perc_speeding perc_alcohol perc_not_distra…
##    <chr>       <dbl>         <int>        <int>            <int>
##  1 Alab…        18.8            39           30               96
##  2 Alab…        18.8            39           30               96
##  3 Alas…        18.1            41           25               90
##  4 Alas…        18.1            41           25               90
##  5 Ariz…        18.6            35           28               84
##  6 Ariz…        18.6            35           28               84
##  7 Ariz…        18.6            35           28               84
##  8 Ariz…        18.6            35           28               84
##  9 Ariz…        18.6            35           28               84
## 10 Ariz…        18.6            35           28               84
## # … with 154 more rows, and 7 more variables: perc_no_previous <int>,
## #   insurance_premiums <dbl>, losses <dbl>, city <chr>, year <chr>,
## #   murder <int>, meanlosses <dbl>

d_b %>% summarize(mean(num_drivers, na.rm=T), n(), n_distinct(city))

## # A tibble: 1 x 3
##   `mean(num_drivers, na.rm = T)` `n()` `n_distinct(city)`
##                            <dbl> <int>              <int>
## 1                           15.5   164                 82

d_b %>% group_by(state, city)

## # A tibble: 164 x 11
## # Groups:   state, city [82]
##    state num_drivers perc_speeding perc_alcohol perc_not_distra…
##    <chr>       <dbl>         <int>        <int>            <int>
##  1 Alab…        18.8            39           30               96
##  2 Alab…        18.8            39           30               96
##  3 Alas…        18.1            41           25               90
##  4 Alas…        18.1            41           25               90
##  5 Ariz…        18.6            35           28               84
##  6 Ariz…        18.6            35           28               84
##  7 Ariz…        18.6            35           28               84
##  8 Ariz…        18.6            35           28               84
##  9 Ariz…        18.6            35           28               84
## 10 Ariz…        18.6            35           28               84
## # … with 154 more rows, and 6 more variables: perc_no_previous <int>,
## #   insurance_premiums <dbl>, losses <dbl>, city <chr>, year <chr>,
## #   murder <int>
…
## # A tibble: 1 x 1
##   `IQR(losses)`
##           <dbl>
## 1          26.3

d_b %>% summarize(median(murder))

## # A tibble: 1 x 1
##   `median(murder)`
##              <dbl>
## 1             34.5

d_b %>% group_by(state, city) %>% summarize(mean(num_drivers))

## # A tibble: 82 x 3
## # Groups:   state [33]
##    state      city        `mean(num_drivers)`
##    <chr>      <chr>                     <dbl>
##  1 Alabama    Mobile                     18.8
##  2 Alaska     Anchorage                  18.1
##  3 Arizona    Chandler                   18.6
##  4 Arizona    Mesa                       18.6
##  5 Arizona    Phoenix                    18.6
##  6 Arizona    Tucson                     18.6
##  7 California Anaheim                    12  
##  8 California Bakersfield                12  
##  9 California Chula Vista                12  
## 10 California Fresno                     12  
## # … with 72 more rows
…
